wave.vcd
$version Generated by VerilatedVcd $end
$timescale 1ps $end
 $scope module TOP $end
  $var wire 1 3 clk $end
  $var wire 1 4 reset $end
  $var wire 1 5 start $end
  $var wire 16 6 biases[0] [15:0] $end
  $var wire 16 7 biases[1] [15:0] $end
  $var wire 16 8 biases[2] [15:0] $end
  $var wire 16 9 biases[3] [15:0] $end
  $var wire 16 : biases[4] [15:0] $end
  $var wire 16 ; biases[5] [15:0] $end
  $var wire 16 < biases[6] [15:0] $end
  $var wire 16 = biases[7] [15:0] $end
  $var wire 1 > done $end
  $scope module conv2d $end
   $var wire 32 ? DATA_WIDTH [31:0] $end
   $var wire 32 @ FRAC_BITS [31:0] $end
   $var wire 32 A IN_CHANNELS [31:0] $end
   $var wire 32 B OUT_CHANNELS [31:0] $end
   $var wire 32 C KERNEL [31:0] $end
   $var wire 32 D IMG_SIZE [31:0] $end
   $var wire 1 3 clk $end
   $var wire 1 4 reset $end
   $var wire 1 5 start $end
   $var wire 16 6 biases[0] [15:0] $end
   $var wire 16 7 biases[1] [15:0] $end
   $var wire 16 8 biases[2] [15:0] $end
   $var wire 16 9 biases[3] [15:0] $end
   $var wire 16 : biases[4] [15:0] $end
   $var wire 16 ; biases[5] [15:0] $end
   $var wire 16 < biases[6] [15:0] $end
   $var wire 16 = biases[7] [15:0] $end
   $var wire 1 > done $end
   $var wire 32 E signed_accum_width [31:0] $end
   $var wire 32 A PAD [31:0] $end
   $var wire 2 # state [1:0] $end
   $var wire 32 $ oc [31:0] $end
   $var wire 32 % ic [31:0] $end
   $var wire 32 F i [31:0] $end
   $var wire 32 G j [31:0] $end
   $var wire 32 & ki [31:0] $end
   $var wire 32 ' kj [31:0] $end
   $var wire 36 ( accum [35:0] $end
   $var wire 32 * out_row [31:0] $end
   $var wire 32 + out_col [31:0] $end
   $var wire 32 , mult [31:0] $end
   $var wire 36 - scale_and_saturate__Vstatic__shifted [35:0] $end
   $var wire 16 / scale_and_saturate__Vstatic__result [15:0] $end
   $scope module unnamedblk1 $end
    $var wire 32 0 in_r [31:0] $end
    $var wire 32 1 in_c [31:0] $end
    $var wire 16 2 in_val [15:0] $end
   $upscope $end
  $upscope $end
 $upscope $end
$enddefinitions $end


#0
b00 #
b00000000000000000000000000000000 $
b00000000000000000000000000000000 %
b00000000000000000000000000000000 &
b00000000000000000000000000000000 '
b000000000000000000000000000000000000 (
b00000000000000000000000000000000 *
b00000000000000000000000000000000 +
b00000000000000000000000000000000 ,
b000000000000000000000000000000000000 -
b0000000000000000 /
b00000000000000000000000000000000 0
b00000000000000000000000000000000 1
b0000000000000000 2
13
14
05
b0000000000000000 6
b0000000000000000 7
b0000000000000000 8
b0000000000000000 9
b0000000000000000 :
b0000000000000000 ;
b0000000000000000 <
b0000000000000000 =
0>
b00000000000000000000000000010000 ?
b00000000000000000000000000000111 @
b00000000000000000000000000000001 A
b00000000000000000000000000001000 B
b00000000000000000000000000000011 C
b00000000000000000000000000011100 D
b00000000000000000000000000100100 E
b00000000000000000000000000000000 F
b00000000000000000000000000000000 G
#1
03
#2
13
#3
03
#4
13
#5
03
#6
13
#7
03
#8
b01 #
13
04
15
#9
03
05
#10
b00000000000000000000000000000001 %
b00000000000000000000000000000011 &
b00000000000000000000000000000011 '
b000000000000000001000000000000000000 (
b00000000000000000000000000000001 +
b00000000000000011100000000000000 ,
b000000000000000000000000100000000000 -
b0000100000000000 /
b00000000000000000000000000000001 0
b00000000000000000000000000000001 1
b0000001110000000 2
13
#11
03
#12
b000000000000000001101100000000000000 (
b00000000000000000000000000000010 +
b00000000000000100000000000000000 ,
b000000000000000000000000110110000000 -
b0000110110000000 /
b00000000000000000000000000000010 1
b0000010000000000 2
13
#13
03
#14
b000000000000000010000100000000000000 (
b00000000000000000000000000000011 +
b00000000000000100100000000000000 ,
b000000000000000000000001000010000000 -
b0001000010000000 /
b00000000000000000000000000000011 1
b0000010010000000 2
13
#15
03
#16
b000000000000000010011100000000000000 (
b00000000000000000000000000000100 +
b00000000000000101000000000000000 ,
b000000000000000000000001001110000000 -
b0001001110000000 /
b00000000000000000000000000000100 1
b0000010100000000 2
13
#17
03
#18
b000000000000000001110000000000000000 (
b00000000000000000000000000000101 +
b00000000000000000000000000000000 ,
b000000000000000000000000111000000000 -
b0000111000000000 /
b00000000000000000000000000000101 1
b0000000000000000 2
13
#19
03
#20
b000000000000000000111100000000000000 (
b00000000000000000000000000000110 +
b000000000000000000000000011110000000 -
b0000011110000000 /
b00000000000000000000000000000110 1
13
#21
03
#22
b000000000000000000000000000000000000 (
b00000000000000000000000000000111 +
b000000000000000000000000000000000000 -
b0000000000000000 /
b00000000000000000000000000000111 1
13
#23
03
#24
b00000000000000000000000000001000 +
b00000000000000000000000000001000 1
13
#25
03
#26
b00000000000000000000000000001001 +
b00000000000000000000000000001001 1
13
#27
03
#28
b00000000000000000000000000001010 +
b00000000000000000000000000001010 1
13
#29
03
#30
b00000000000000000000000000001011 +
b00000000000000000000000000001011 1
13
#31
03
#32
b00000000000000000000000000001100 +
b00000000000000000000000000001100 1
13
#33
03
#34
b00000000000000000000000000001101 +
b00000000000000000000000000001101 1
13
#35
03
#36
b00000000000000000000000000001110 +
b00000000000000000000000000001110 1
13
#37
03
#38
b00000000000000000000000000001111 +
b00000000000000000000000000001111 1
13
#39
03
#40
b00000000000000000000000000010000 +
b00000000000000000000000000010000 1
13
#41
03
#42
b00000000000000000000000000010001 +
b00000000000000000000000000010001 1
13
#43
03
#44
b00000000000000000000000000010010 +
b00000000000000000000000000010010 1
13
#45
03
#46
b00000000000000000000000000010011 +
b00000000000000000000000000010011 1
13
#47
03
#48
b00000000000000000000000000010100 +
b00000000000000000000000000010100 1
13
#49
03
#50
b00000000000000000000000000010101 +
b00000000000000000000000000010101 1
13
#51
03
#52
b00000000000000000000000000010110 +
b00000000000000000000000000010110 1
13
#53
03
#54
b00000000000000000000000000010111 +
b00000000000000000000000000010111 1
13
#55
03
#56
b00000000000000000000000000011000 +
b00000000000000000000000000011000 1
13
#57
03
#58
b00000000000000000000000000011001 +
b00000000000000000000000000011001 1
13
#59
03
#60
b00000000000000000000000000011010 +
b00000000000000000000000000011010 1
13
#61
03
#62
b00000000000000000000000000011011 +
b00000000000000000000000000011011 1
13
#63
03
#64
b00000000000000000000000000000001 *
b00000000000000000000000000000000 +
b00000000000000000000000000011100 1
13
#65
03
#66
b000000000000000010011100000000000000 (
b00000000000000000000000000000001 +
b00000000000000110000000000000000 ,
b000000000000000000000001001110000000 -
b0001001110000000 /
b00000000000000000000000000000010 0
b00000000000000000000000000000001 1
b0000011000000000 2
13
#67
03
#68
b000000000000000011111100000000000000 (
b00000000000000000000000000000010 +
b00000000000000110100000000000000 ,
b000000000000000000000001111110000000 -
b0001111110000000 /
b00000000000000000000000000000010 1
b0000011010000000 2
13
#69
03
#70
b000000000000000100100000000000000000 (
b00000000000000000000000000000011 +
b00000000000000111000000000000000 ,
b000000000000000000000010010000000000 -
b0010010000000000 /
b00000000000000000000000000000011 1
b0000011100000000 2
13
#71
03
#72
b000000000000000101000100000000000000 (
b00000000000000000000000000000100 +
b00000000000000111100000000000000 ,
b000000000000000000000010100010000000 -
b0010100010000000 /
b00000000000000000000000000000100 1
b0000011110000000 2
13
#73
03
#74
b000000000000000011100100000000000000 (
b00000000000000000000000000000101 +
b00000000000000000000000000000000 ,
b000000000000000000000001110010000000 -
b0001110010000000 /
b00000000000000000000000000000101 1
b0000000000000000 2
13
#75
03
#76
b000000000000000001111000000000000000 (
b00000000000000000000000000000110 +
b000000000000000000000000111100000000 -
b0000111100000000 /
b00000000000000000000000000000110 1
13
#77
03
#78
b000000000000000000000000000000000000 (
b00000000000000000000000000000111 +
b000000000000000000000000000000000000 -
b0000000000000000 /
b00000000000000000000000000000111 1
13
#79
03
#80
b00000000000000000000000000001000 +
b00000000000000000000000000001000 1
13
#81
03
#82
b00000000000000000000000000001001 +
b00000000000000000000000000001001 1
13
#83
03
#84
b00000000000000000000000000001010 +
b00000000000000000000000000001010 1
13
#85
03
#86
b00000000000000000000000000001011 +
b00000000000000000000000000001011 1
13
#87
03
#88
b00000000000000000000000000001100 +
b00000000000000000000000000001100 1
13
#89
03
#90
b00000000000000000000000000001101 +
b00000000000000000000000000001101 1
13
#91
03
#92
b00000000000000000000000000001110 +
b00000000000000000000000000001110 1
13
#93
03
#94
b00000000000000000000000000001111 +
b00000000000000000000000000001111 1
13
#95
03
#96
b00000000000000000000000000010000 +
b00000000000000000000000000010000 1
13
#97
03
#98
b00000000000000000000000000010001 +
b00000000000000000000000000010001 1
13
#99
03
#100
b00000000000000000000000000010010 +
b00000000000000000000000000010010 1
13
#101
03
#102
b00000000000000000000000000010011 +
b00000000000000000000000000010011 1
13
#103
03
#104
b00000000000000000000000000010100 +
b00000000000000000000000000010100 1
13
#105
03
#106
b00000000000000000000000000010101 +
b00000000000000000000000000010101 1
13
#107
03
#108
b00000000000000000000000000010110 +
b00000000000000000000000000010110 1
13
#109
03
#110
b00000000000000000000000000010111 +
b00000000000000000000000000010111 1
13
#111
03
#112
b00000000000000000000000000011000 +
b00000000000000000000000000011000 1
13
#113
03
#114
b00000000000000000000000000011001 +
b00000000000000000000000000011001 1
13
#115
03
#116
b00000000000000000000000000011010 +
b00000000000000000000000000011010 1
13
#117
03
#118
b00000000000000000000000000011011 +
b00000000000000000000000000011011 1
13
#119
03
#120
b00000000000000000000000000000010 *
b00000000000000000000000000000000 +
b00000000000000000000000000011100 1
13
#121
03
#122
b000000000000000100010100000000000000 (
b00000000000000000000000000000001 +
b00000000000001000100000000000000 ,
b000000000000000000000010001010000000 -
b0010001010000000 /
b00000000000000000000000000000011 0
b00000000000000000000000000000001 1
b0000100010000000 2
13
#123
03
#124
b000000000000000110110000000000000000 (
b00000000000000000000000000000010 +
b00000000000001001000000000000000 ,
b000000000000000000000011011000000000 -
b0011011000000000 /
b00000000000000000000000000000010 1
b0000100100000000 2
13
#125
03
#126
b000000000000000111010100000000000000 (
b00000000000000000000000000000011 +
b00000000000001001100000000000000 ,
b000000000000000000000011101010000000 -
b0011101010000000 /
b00000000000000000000000000000011 1
b0000100110000000 2
13
#127
03
#128
b000000000000000111111000000000000000 (
b00000000000000000000000000000100 +
b00000000000001010000000000000000 ,
b000000000000000000000011111100000000 -
b0011111100000000 /
b00000000000000000000000000000100 1
b0000101000000000 2
13
#129
03
#130
b000000000000000101011100000000000000 (
b00000000000000000000000000000101 +
b00000000000000000000000000000000 ,
b000000000000000000000010101110000000 -
b0010101110000000 /
b00000000000000000000000000000101 1
b0000000000000000 2
13
#131
03
#132
b000000000000000010110100000000000000 (
b00000000000000000000000000000110 +
b000000000000000000000001011010000000 -
b0001011010000000 /
b00000000000000000000000000000110 1
13
#133
03
#134
b000000000000000000000000000000000000 (
b00000000000000000000000000000111 +
b000000000000000000000000000000000000 -
b0000000000000000 /
b00000000000000000000000000000111 1
13
#135
03
#136
b00000000000000000000000000001000 +
b00000000000000000000000000001000 1
13
#137
03
#138
b00000000000000000000000000001001 +
b00000000000000000000000000001001 1
13
#139
03
#140
b00000000000000000000000000001010 +
b00000000000000000000000000001010 1
13
#141
03
#142
b00000000000000000000000000001011 +
b00000000000000000000000000001011 1
13
#143
03
#144
b00000000000000000000000000001100 +
b00000000000000000000000000001100 1
13
#145
03
#146
b00000000000000000000000000001101 +
b00000000000000000000000000001101 1
13
#147
03
#148
b00000000000000000000000000001110 +
b00000000000000000000000000001110 1
13
#149
03
#150
b00000000000000000000000000001111 +
b00000000000000000000000000001111 1
13
#151
03
#152
b00000000000000000000000000010000 +
b00000000000000000000000000010000 1
13
#153
03
#154
b00000000000000000000000000010001 +
b00000000000000000000000000010001 1
13
#155
03
#156
b00000000000000000000000000010010 +
b00000000000000000000000000010010 1
13
#157
03
#158
b00000000000000000000000000010011 +
b00000000000000000000000000010011 1
13
#159
03
#160
b00000000000000000000000000010100 +
b00000000000000000000000000010100 1
13
#161
03
#162
b00000000000000000000000000010101 +
b00000000000000000000000000010101 1
13
#163
03
#164
b00000000000000000000000000010110 +
b00000000000000000000000000010110 1
13
#165
03
#166
b00000000000000000000000000010111 +
b00000000000000000000000000010111 1
13
#167
03
#168
b00000000000000000000000000011000 +
b00000000000000000000000000011000 1
13
#169
03
#170
b00000000000000000000000000011001 +
b00000000000000000000000000011001 1
13
#171
03
#172
b00000000000000000000000000011010 +
b00000000000000000000000000011010 1
13
#173
03
#174
b00000000000000000000000000011011 +
b00000000000000000000000000011011 1
13
#175
03
#176
b00000000000000000000000000000011 *
b00000000000000000000000000000000 +
b00000000000000000000000000011100 1
13
#177
03
#178
b000000000000000110001100000000000000 (
b00000000000000000000000000000001 +
b00000000000001011000000000000000 ,
b000000000000000000000011000110000000 -
b0011000110000000 /
b00000000000000000000000000000100 0
b00000000000000000000000000000001 1
b0000101100000000 2
13
#179
03
#180
b000000000000001001100100000000000000 (
b00000000000000000000000000000010 +
b00000000000001011100000000000000 ,
b000000000000000000000100110010000000 -
b0100110010000000 /
b00000000000000000000000000000010 1
b0000101110000000 2
13
#181
03
#182
b000000000000001010001000000000000000 (
b00000000000000000000000000000011 +
b00000000000001100000000000000000 ,
b000000000000000000000101000100000000 -
b0101000100000000 /
b00000000000000000000000000000011 1
b0000110000000000 2
13
#183
03
#184
b000000000000001010101100000000000000 (
b00000000000000000000000000000100 +
b00000000000001100100000000000000 ,
b000000000000000000000101010110000000 -
b0101010110000000 /
b00000000000000000000000000000100 1
b0000110010000000 2
13
#185
03
#186
b000000000000000111010100000000000000 (
b00000000000000000000000000000101 +
b00000000000000000000000000000000 ,
b000000000000000000000011101010000000 -
b0011101010000000 /
b00000000000000000000000000000101 1
b0000000000000000 2
13
#187
03
#188
b000000000000000011110000000000000000 (
b00000000000000000000000000000110 +
b000000000000000000000001111000000000 -
b0001111000000000 /
b00000000000000000000000000000110 1
13
#189
03
#190
b000000000000000000000000000000000000 (
b00000000000000000000000000000111 +
b000000000000000000000000000000000000 -
b0000000000000000 /
b00000000000000000000000000000111 1
13
#191
03
#192
b00000000000000000000000000001000 +
b00000000000000000000000000001000 1
13
#193
03
#194
b00000000000000000000000000001001 +
b00000000000000000000000000001001 1
13
#195
03
#196
b00000000000000000000000000001010 +
b00000000000000000000000000001010 1
13
#197
03
#198
b00000000000000000000000000001011 +
b00000000000000000000000000001011 1
13
#199
03
#200
b00000000000000000000000000001100 +
b00000000000000000000000000001100 1
13
#201
03
#202
b00000000000000000000000000001101 +
b00000000000000000000000000001101 1
13
#203
03
#204
b00000000000000000000000000001110 +
b00000000000000000000000000001110 1
13
#205
03
#206
b00000000000000000000000000001111 +
b00000000000000000000000000001111 1
13
#207
03
#208
b00000000000000000000000000010000 +
b00000000000000000000000000010000 1
13
#209
03
#210
b00000000000000000000000000010001 +
b00000000000000000000000000010001 1
13
#211
03
#212
b00000000000000000000000000010010 +
b00000000000000000000000000010010 1
13
#213
03
#214
b00000000000000000000000000010011 +
b00000000000000000000000000010011 1
13
#215
03
#216
b00000000000000000000000000010100 +
b00000000000000000000000000010100 1
13
#217
03
#218
b00000000000000000000000000010101 +
b00000000000000000000000000010101 1
13
#219
03
#220
b00000000000000000000000000010110 +
b00000000000000000000000000010110 1
13
#221
03
#222
b00000000000000000000000000010111 +
b00000000000000000000000000010111 1
13
#223
03
#224
b00000000000000000000000000011000 +
b00000000000000000000000000011000 1
13
#225
03
#226
b00000000000000000000000000011001 +
b00000000000000000000000000011001 1
13
#227
03
#228
b00000000000000000000000000011010 +
b00000000000000000000000000011010 1
13
#229
03
#230
b00000000000000000000000000011011 +
b00000000000000000000000000011011 1
13
#231
03
#232
b00000000000000000000000000000100 *
b00000000000000000000000000000000 +
b00000000000000000000000000011100 1
13
#233
03
#234
b000000000000000100110000000000000000 (
b00000000000000000000000000000001 +
b000000000000000000000010011000000000 -
b0010011000000000 /
b00000000000000000000000000000101 0
b00000000000000000000000000000001 1
13
#235
03
#236
b000000000000000111010100000000000000 (
b00000000000000000000000000000010 +
b000000000000000000000011101010000000 -
b0011101010000000 /
b00000000000000000000000000000010 1
13
#237
03
#238
b000000000000000111101100000000000000 (
b00000000000000000000000000000011 +
b000000000000000000000011110110000000 -
b0011110110000000 /
b00000000000000000000000000000011 1
13
#239
03
#240
b000000000000001000000100000000000000 (
b00000000000000000000000000000100 +
b000000000000000000000100000010000000 -
b0100000010000000 /
b00000000000000000000000000000100 1
13
#241
03
#242
b000000000000000101100000000000000000 (
b00000000000000000000000000000101 +
b000000000000000000000010110000000000 -
b0010110000000000 /
b00000000000000000000000000000101 1
13
#243
03
#244
b000000000000000010110100000000000000 (
b00000000000000000000000000000110 +
b000000000000000000000001011010000000 -
b0001011010000000 /
b00000000000000000000000000000110 1
13
#245
03
#246
b000000000000000000000000000000000000 (
b00000000000000000000000000000111 +
b000000000000000000000000000000000000 -
b0000000000000000 /
b00000000000000000000000000000111 1
13
#247
03
#248
b00000000000000000000000000001000 +
b00000000000000000000000000001000 1
13
#249
03
#250
b00000000000000000000000000001001 +
b00000000000000000000000000001001 1
13
#251
03
#252
b00000000000000000000000000001010 +
b00000000000000000000000000001010 1
13
#253
03
#254
b00000000000000000000000000001011 +
b00000000000000000000000000001011 1
13
#255
03
#256
b00000000000000000000000000001100 +
b00000000000000000000000000001100 1
13
#257
03
#258
b00000000000000000000000000001101 +
b00000000000000000000000000001101 1
13
#259
03
#260
b00000000000000000000000000001110 +
b00000000000000000000000000001110 1
13
#261
03
#262
b00000000000000000000000000001111 +
b00000000000000000000000000001111 1
13
#263
03
#264
b00000000000000000000000000010000 +
b00000000000000000000000000010000 1
13
#265
03
#266
b00000000000000000000000000010001 +
b00000000000000000000000000010001 1
13
#267
03
#268
b00000000000000000000000000010010 +
b00000000000000000000000000010010 1
13
#269
03
#270
b00000000000000000000000000010011 +
b00000000000000000000000000010011 1
13
#271
03
#272
b00000000000000000000000000010100 +
b00000000000000000000000000010100 1
13
#273
03
#274
b00000000000000000000000000010101 +
b00000000000000000000000000010101 1
13
#275
03
#276
b00000000000000000000000000010110 +
b00000000000000000000000000010110 1
13
#277
03
#278
b00000000000000000000000000010111 +
b00000000000000000000000000010111 1
13
#279
03
#280
b00000000000000000000000000011000 +
b00000000000000000000000000011000 1
13
#281
03
#282
b00000000000000000000000000011001 +
b00000000000000000000000000011001 1
13
#283
03
#284
b00000000000000000000000000011010 +
b00000000000000000000000000011010 1
13
#285
03
#286
b00000000000000000000000000011011 +
b00000000000000000000000000011011 1
13
#287
03
#288
b00000000000000000000000000000101 *
b00000000000000000000000000000000 +
b00000000000000000000000000011100 1
13
#289
03
#290
b000000000000000010101100000000000000 (
b00000000000000000000000000000001 +
b000000000000000000000001010110000000 -
b0001010110000000 /
b00000000000000000000000000000110 0
b00000000000000000000000000000001 1
13
#291
03
#292
b000000000000000100001000000000000000 (
b00000000000000000000000000000010 +
b000000000000000000000010000100000000 -
b0010000100000000 /
b00000000000000000000000000000010 1
13
#293
03
#294
b000000000000000100010100000000000000 (
b00000000000000000000000000000011 +
b000000000000000000000010001010000000 -
b0010001010000000 /
b00000000000000000000000000000011 1
13
#295
03
#296
b000000000000000100100000000000000000 (
b00000000000000000000000000000100 +
b000000000000000000000010010000000000 -
b0010010000000000 /
b00000000000000000000000000000100 1
13
#297
03
#298
b000000000000000011000100000000000000 (
b00000000000000000000000000000101 +
b000000000000000000000001100010000000 -
b0001100010000000 /
b00000000000000000000000000000101 1
13
#299
03
#300
b000000000000000001100100000000000000 (
b00000000000000000000000000000110 +
b000000000000000000000000110010000000 -
b0000110010000000 /
b00000000000000000000000000000110 1
13
#301
03
#302
b000000000000000000000000000000000000 (
b00000000000000000000000000000111 +
b000000000000000000000000000000000000 -
b0000000000000000 /
b00000000000000000000000000000111 1
13
#303
03
#304
b00000000000000000000000000001000 +
b00000000000000000000000000001000 1
13
#305
03
#306
b00000000000000000000000000001001 +
b00000000000000000000000000001001 1
13
#307
03
#308
b00000000000000000000000000001010 +
b00000000000000000000000000001010 1
13
#309
03
#310
b00000000000000000000000000001011 +
b00000000000000000000000000001011 1
13
#311
03
#312
b00000000000000000000000000001100 +
b00000000000000000000000000001100 1
13
#313
03
#314
b00000000000000000000000000001101 +
b00000000000000000000000000001101 1
13
#315
03
#316
b00000000000000000000000000001110 +
b00000000000000000000000000001110 1
13
#317
03
#318
b00000000000000000000000000001111 +
b00000000000000000000000000001111 1
13
#319
03
#320
b00000000000000000000000000010000 +
b00000000000000000000000000010000 1
13
#321
03
#322
b00000000000000000000000000010001 +
b00000000000000000000000000010001 1
13
#323
03
#324
b00000000000000000000000000010010 +
b00000000000000000000000000010010 1
13
#325
03
#326
b00000000000000000000000000010011 +
b00000000000000000000000000010011 1
13
#327
03
#328
b00000000000000000000000000010100 +
b00000000000000000000000000010100 1
13
#329
03
#330
b00000000000000000000000000010101 +
b00000000000000000000000000010101 1
13
#331
03
#332
b00000000000000000000000000010110 +
b00000000000000000000000000010110 1
13
#333
03
#334
b00000000000000000000000000010111 +
b00000000000000000000000000010111 1
13
#335
03
#336
b00000000000000000000000000011000 +
b00000000000000000000000000011000 1
13
#337
03
#338
b00000000000000000000000000011001 +
b00000000000000000000000000011001 1
13
#339
03
#340
b00000000000000000000000000011010 +
b00000000000000000000000000011010 1
13
#341
03
#342
b00000000000000000000000000011011 +
b00000000000000000000000000011011 1
13
#343
03
#344
b00000000000000000000000000000110 *
b00000000000000000000000000000000 +
b00000000000000000000000000011100 1
13
#345
03
#346
b00000000000000000000000000000001 +
b00000000000000000000000000000111 0
b00000000000000000000000000000001 1
13
#347
03
#348
b00000000000000000000000000000010 +
b00000000000000000000000000000010 1
13
#349
03
#350
b00000000000000000000000000000011 +
b00000000000000000000000000000011 1
13
#351
03
#352
b00000000000000000000000000000100 +
b00000000000000000000000000000100 1
13
#353
03
#354
b00000000000000000000000000000101 +
b00000000000000000000000000000101 1
13
#355
03
#356
b00000000000000000000000000000110 +
b00000000000000000000000000000110 1
13
#357
03
#358
b00000000000000000000000000000111 +
b00000000000000000000000000000111 1
13
#359
03
#360
b00000000000000000000000000001000 +
b00000000000000000000000000001000 1
13
#361
03
#362
b00000000000000000000000000001001 +
b00000000000000000000000000001001 1
13
#363
03
#364
b00000000000000000000000000001010 +
b00000000000000000000000000001010 1
13
#365
03
#366
b00000000000000000000000000001011 +
b00000000000000000000000000001011 1
13
#367
03
#368
b00000000000000000000000000001100 +
b00000000000000000000000000001100 1
13
#369
03
#370
b00000000000000000000000000001101 +
b00000000000000000000000000001101 1
13
#371
03
#372
b00000000000000000000000000001110 +
b00000000000000000000000000001110 1
13
#373
03
#374
b00000000000000000000000000001111 +
b00000000000000000000000000001111 1
13
#375
03
#376
b00000000000000000000000000010000 +
b00000000000000000000000000010000 1
13
#377
03
#378
b00000000000000000000000000010001 +
b00000000000000000000000000010001 1
13
#379
03
#380
b00000000000000000000000000010010 +
b00000000000000000000000000010010 1
13
#381
03
#382
b00000000000000000000000000010011 +
b00000000000000000000000000010011 1
13
#383
03
#384
b00000000000000000000000000010100 +
b00000000000000000000000000010100 1
13
#385
03
#386
b00000000000000000000000000010101 +
b00000000000000000000000000010101 1
13
#387
03
#388
b00000000000000000000000000010110 +
b00000000000000000000000000010110 1
13
#389
03
#390
b00000000000000000000000000010111 +
b00000000000000000000000000010111 1
13
#391
03
#392
b00000000000000000000000000011000 +
b00000000000000000000000000011000 1
13
#393
03
#394
b00000000000000000000000000011001 +
b00000000000000000000000000011001 1
13
#395
03
#396
b00000000000000000000000000011010 +
b00000000000000000000000000011010 1
13
#397
03
#398
b00000000000000000000000000011011 +
b00000000000000000000000000011011 1
13
#399
03
#400
b00000000000000000000000000000111 *
b00000000000000000000000000000000 +
b00000000000000000000000000011100 1
13
#401
03
#402
b00000000000000000000000000000001 +
b00000000000000000000000000001000 0
b00000000000000000000000000000001 1
13
#403
03
#404
b00000000000000000000000000000010 +
b00000000000000000000000000000010 1
13
#405
03
#406
b00000000000000000000000000000011 +
b00000000000000000000000000000011 1
13
#407
03
#408
b00000000000000000000000000000100 +
b00000000000000000000000000000100 1
13
#409
03
#410
b00000000000000000000000000000101 +
b00000000000000000000000000000101 1
13
#411
03
#412
b00000000000000000000000000000110 +
b00000000000000000000000000000110 1
13
#413
03
#414
b00000000000000000000000000000111 +
b00000000000000000000000000000111 1
13
#415
03
#416
b00000000000000000000000000001000 +
b00000000000000000000000000001000 1
13
#417
03
#418
b00000000000000000000000000001001 +
b00000000000000000000000000001001 1
13
#419
03
#420
b00000000000000000000000000001010 +
b00000000000000000000000000001010 1
13
#421
03
#422
b00000000000000000000000000001011 +
b00000000000000000000000000001011 1
13
#423
03
#424
b00000000000000000000000000001100 +
b00000000000000000000000000001100 1
13
#425
03
#426
b00000000000000000000000000001101 +
b00000000000000000000000000001101 1
13
#427
03
#428
b00000000000000000000000000001110 +
b00000000000000000000000000001110 1
13
#429
03
#430
b00000000000000000000000000001111 +
b00000000000000000000000000001111 1
13
#431
03
#432
b00000000000000000000000000010000 +
b00000000000000000000000000010000 1
13
#433
03
#434
b00000000000000000000000000010001 +
b00000000000000000000000000010001 1
13
#435
03
#436
b00000000000000000000000000010010 +
b00000000000000000000000000010010 1
13
#437
03
#438
b00000000000000000000000000010011 +
b00000000000000000000000000010011 1
13
#439
03
#440
b00000000000000000000000000010100 +
b00000000000000000000000000010100 1
13
#441
03
#442
b00000000000000000000000000010101 +
b00000000000000000000000000010101 1
13
#443
03
#444
b00000000000000000000000000010110 +
b00000000000000000000000000010110 1
13
#445
03
#446
b00000000000000000000000000010111 +
b00000000000000000000000000010111 1
13
#447
03
#448
b00000000000000000000000000011000 +
b00000000000000000000000000011000 1
13
#449
03
#450
b00000000000000000000000000011001 +
b00000000000000000000000000011001 1
13
#451
03
#452
b00000000000000000000000000011010 +
b00000000000000000000000000011010 1
13
#453
03
#454
b00000000000000000000000000011011 +
b00000000000000000000000000011011 1
13
#455
03
#456
b00000000000000000000000000001000 *
b00000000000000000000000000000000 +
b00000000000000000000000000011100 1
13
#457
03
#458
b00000000000000000000000000000001 +
b00000000000000000000000000001001 0
b00000000000000000000000000000001 1
13
#459
03
#460
b00000000000000000000000000000010 +
b00000000000000000000000000000010 1
13
#461
03
#462
b00000000000000000000000000000011 +
b00000000000000000000000000000011 1
13
#463
03
#464
b00000000000000000000000000000100 +
b00000000000000000000000000000100 1
13
#465
03
#466
b00000000000000000000000000000101 +
b00000000000000000000000000000101 1
13
#467
03
#468
b00000000000000000000000000000110 +
b00000000000000000000000000000110 1
13
#469
03
#470
b00000000000000000000000000000111 +
b00000000000000000000000000000111 1
13
#471
03
#472
b00000000000000000000000000001000 +
b00000000000000000000000000001000 1
13
#473
03
#474
b00000000000000000000000000001001 +
b00000000000000000000000000001001 1
13
#475
03
#476
b00000000000000000000000000001010 +
b00000000000000000000000000001010 1
13
#477
03
#478
b00000000000000000000000000001011 +
b00000000000000000000000000001011 1
13
#479
03
#480
b00000000000000000000000000001100 +
b00000000000000000000000000001100 1
13
#481
03
#482
b00000000000000000000000000001101 +
b00000000000000000000000000001101 1
13
#483
03
#484
b00000000000000000000000000001110 +
b00000000000000000000000000001110 1
13
#485
03
#486
b00000000000000000000000000001111 +
b00000000000000000000000000001111 1
13
#487
03
#488
b00000000000000000000000000010000 +
b00000000000000000000000000010000 1
13
#489
03
#490
b00000000000000000000000000010001 +
b00000000000000000000000000010001 1
13
#491
03
#492
b00000000000000000000000000010010 +
b00000000000000000000000000010010 1
13
#493
03
#494
b00000000000000000000000000010011 +
b00000000000000000000000000010011 1
13
#495
03
#496
b00000000000000000000000000010100 +
b00000000000000000000000000010100 1
13
#497
03
#498
b00000000000000000000000000010101 +
b00000000000000000000000000010101 1
13
#499
03
#500
b00000000000000000000000000010110 +
b00000000000000000000000000010110 1
13
#501
03
#502
b00000000000000000000000000010111 +
b00000000000000000000000000010111 1
13
#503
03
#504
b00000000000000000000000000011000 +
b00000000000000000000000000011000 1
13
#505
03
#506
b00000000000000000000000000011001 +
b00000000000000000000000000011001 1
13
#507
03
#508
b00000000000000000000000000011010 +
b00000000000000000000000000011010 1
13
#509
03
#510
b00000000000000000000000000011011 +
b00000000000000000000000000011011 1
13
#511
03
#512
b00000000000000000000000000001001 *
b00000000000000000000000000000000 +
b00000000000000000000000000011100 1
13
#513
03
#514
b00000000000000000000000000000001 +
b00000000000000000000000000001010 0
b00000000000000000000000000000001 1
13
#515
03
#516
b00000000000000000000000000000010 +
b00000000000000000000000000000010 1
13
#517
03
#518
b00000000000000000000000000000011 +
b00000000000000000000000000000011 1
13
#519
03
#520
b00000000000000000000000000000100 +
b00000000000000000000000000000100 1
13
#521
03
#522
b00000000000000000000000000000101 +
b00000000000000000000000000000101 1
13
#523
03
#524
b00000000000000000000000000000110 +
b00000000000000000000000000000110 1
13
#525
03
#526
b00000000000000000000000000000111 +
b00000000000000000000000000000111 1
13
#527
03
#528
b00000000000000000000000000001000 +
b00000000000000000000000000001000 1
13
#529
03
#530
b00000000000000000000000000001001 +
b00000000000000000000000000001001 1
13
#531
03
#532
b00000000000000000000000000001010 +
b00000000000000000000000000001010 1
13
#533
03
#534
b00000000000000000000000000001011 +
b00000000000000000000000000001011 1
13
#535
03
#536
b00000000000000000000000000001100 +
b00000000000000000000000000001100 1
13
#537
03
#538
b00000000000000000000000000001101 +
b00000000000000000000000000001101 1
13
#539
03
#540
b00000000000000000000000000001110 +
b00000000000000000000000000001110 1
13
#541
03
#542
b00000000000000000000000000001111 +
b00000000000000000000000000001111 1
13
#543
03
#544
b00000000000000000000000000010000 +
b00000000000000000000000000010000 1
13
#545
03
#546
b00000000000000000000000000010001 +
b00000000000000000000000000010001 1
13
#547
03
